:020000040000FA
:1000000018F09FE518F09FE518F09FE518F09FE5C0
:1000100018F09FE50000A0E1F0FF1FE518F09FE554
:1000200058000000400000004400000048000000AC
:100030004C000000000000005000000054000000D0
:10004000FEFFFFEAFEFFFFEAFEFFFFEAFEFFFFEA18
:10005000FEFFFFEAFEFFFFEA74019FE50210A0E346
:10006000001080E56C019FE5AA10A0E35520A0E3F5
:100070002430A0E3043080E50130A0E3003080E5C7
:100080000C1080E50C2080E5083090E5013B13E280
:10009000FCFFFF0A0330A0E3003080E50C1080E590
:1000A0000C2080E530019FE50310A0E3041080E5FB
:1000B0000210A0E3001080E520019FE5DBF021E3C2
:1000C00000D0A0E1000040E2D7F021E300D0A0E1A1
:1000D000000040E2D1F021E300D0A0E1000040E2C6
:1000E000D2F021E300D0A0E1800040E2D3F021E390
:1000F00000D0A0E1080040E210F021E300D0A0E130
:1001000001AB4DE2D8109FE5040000EB0100D1E403
:100110007E0050E30F00001BFBFFFF1AF8FFFFEA11
:100120006040ADE8BC509FE5006095E5FF6406E2E5
:10013000016886E3006085E5AC509FE58B60A0E335
:100140000C60C5E5C360A0E30060C5E50360A0E303
:100150000C60C5E560803DE96040ADE888509FE5F2
:100160001460D5E5206016E2FCFFFF0A0000C5E53B
:1001700060803DE9202122232425262728292A2BB7
:100180002C2D2E2F303132333435363738393A3B37
:100190003C3D3E3F404142434445464748494A4B27
:1001A0004C4D4E4F505152535455565758595A5B17
:1001B0005C5D5E5F606162636465666768696A6B07
:1001C0006C6D6E6F707172737475767778797A7BF7
:1001D0007C7D7E0000C11FE080C01FE000C01FE0EA
:1001E000880400407401000000C002E0000001E04B
:0400000500000000F7
:00000001FF
